Unique abundance profile. — get_subset_unique • rbims
…
    Details

    This function is part of a package used for the analysis
of bins metabolism.

    Examples

get_subset_unique(ko_bin_mapp, metadata, Sample_site, 
"Water_column", analysis="KEGG")

#> # A tibble: 2,553 x 19
#>    Module Module_descripti… Pathway  Pathway_description     Cycle Pathway_cycle
#>    <chr>  <chr>             <chr>    <chr>                   <chr> <chr>        
#>  1 NA     NA                map00740 Riboflavin metabolism   NA    NA           
#>  2 NA     NA                map01100 Metabolic pathways      NA    NA           
#>  3 NA     NA                map01110 Biosynthesis of second… NA    NA           
#>  4 NA     NA                map00740 Riboflavin metabolism   NA    NA           
#>  5 NA     NA                map01100 Metabolic pathways      NA    NA           
#>  6 NA     NA                NA       NA                      NA    NA           
#>  7 NA     NA                map03050 Proteasome              NA    NA           
#>  8 NA     NA                map03008 Ribosome biogenesis in… NA    NA           
#>  9 NA     NA                map00760 Nicotinate and nicotin… NA    NA           
#> 10 NA     NA                map01100 Metabolic pathways      NA    NA           
#> # … with 2,543 more rows, and 13 more variables: Detail_cycle <chr>,
#> #   Genes <chr>, Gene_description <chr>, Enzyme <chr>, KO <chr>,
#> #   rbims_pathway <chr>, rbims_sub_pathway <chr>, Bin_10 <int>, Bin_12 <int>,
#> #   Bin_56 <int>, Bin_113 <int>, Bin_1 <int>, Bin_2 <int>
…
